%YAML 1.1
%TAG !u! tag:unity3d.com,2011:
--- !u!1045 &1
EditorBuildSettings:
  m_ObjectHideFlags: 0
  serializedVersion: 2
  m_Scenes:
  - enabled: 1
    path: Assets/Scenes/Levels/Start_Game.unity
    guid: a8b23a7d34698d94a84a34fedd470cd4
  - enabled: 1
    path: Assets/Scenes/Levels/Level_1.unity
    guid: 39a859ed5635601439b53d03e391b9be
  - enabled: 1
    path: Assets/Scenes/Levels/Level_2.unity
    guid: 2ba29f3c2732da54bb87c403496c071b
  - enabled: 1
    path: Assets/Scenes/Levels/Level_3.unity
    guid: 1ad128f5db4abcd4994d9742af27a2ce
  - enabled: 1
    path: Assets/Scenes/Levels/Level_4.unity
    guid: d9ef35a8e72161b4488802ae3b22bb6a
  - enabled: 1
    path: Assets/Scenes/Levels/End_Game.unity
    guid: 6a97289aa6f6c844fb50fd41942bb3f7
  m_configObjects: {}
